Inspect the cryptoTax pricing cache — pricing_cache • cryptoTax
…
include.legacy
Logical; whether to also include legacy cache objects
found in .GlobalEnv.

    Value

    If name is NULL, a named list of cache entries. Otherwise, the
requested cached object or NULL if not present.

    Examples

pricing_cache()
#> $list.prices
#> # A tibble: 5,933 × 23
#>       id slug    name    symbol timestamp           ref_cur_id ref_cur_name
#>    <int> <chr>   <chr>   <chr>  <dttm>              <chr>      <chr>       
#>  1     1 bitcoin Bitcoin BTC    2021-01-01 23:59:59 2781       USD         
#>  2     1 bitcoin Bitcoin BTC    2021-01-02 23:59:59 2781       USD         
#>  3     1 bitcoin Bitcoin BTC    2021-01-03 23:59:59 2781       USD         
#>  4     1 bitcoin Bitcoin BTC    2021-01-04 23:59:59 2781       USD         
#>  5     1 bitcoin Bitcoin BTC    2021-01-05 23:59:59 2781       USD         
#>  6     1 bitcoin Bitcoin BTC    2021-01-06 23:59:59 2781       USD         
#>  7     1 bitcoin Bitcoin BTC    2021-01-07 23:59:59 2781       USD         
#>  8     1 bitcoin Bitcoin BTC    2021-01-08 23:59:59 2781       USD         
#>  9     1 bitcoin Bitcoin BTC    2021-01-09 23:59:59 2781       USD         
#> 10     1 bitcoin Bitcoin BTC    2021-01-10 23:59:59 2781       USD         
#> # ℹ 5,923 more rows
#> # ℹ 16 more variables: time_open <dttm>, time_close <dttm>, time_high <dttm>,
#> #   time_low <dttm>, open <dbl>, high <dbl>, low <dbl>, close <dbl>,
#> #   volume <dbl>, market_cap <dbl>, circulating_supply <dbl>,
#> #   spot.rate_USD <dbl>, CAD.rate <dbl>, spot.rate2 <dbl>, currency <chr>,
#> #   date2 <date>
#> 
#> $coins.list
#> # A tibble: 8,416 × 7
#>       id name  symbol slug  is_active first_historical_data last_historical_data
#>    <int> <chr> <chr>  <chr>     <int> <date>                <date>              
#>  1     1 Bitc… BTC    bitc…         1 2010-07-13            2026-04-20          
#>  2     2 Lite… LTC    lite…         1 2013-04-28            2026-04-20          
#>  3     3 Name… NMC    name…         1 2013-04-28            2026-04-20          
#>  4     4 Terr… TRC    terr…         1 2013-04-28            2026-04-20          
#>  5     5 Peer… PPC    peer…         1 2013-04-28            2026-04-20          
#>  6     6 Nova… NVC    nova…         1 2013-04-28            2026-04-20          
#>  7     8 Feat… FTC    feat…         1 2013-05-03            2026-04-20          
#>  8    10 Frei… FRC    frei…         1 2013-05-03            2026-04-20          
#>  9    13 Ixco… IXC    ixco…         1 2013-05-08            2026-04-20          
#> 10    18 Digi… DGC    digi…         1 2013-06-09            2026-04-20          
#> # ℹ 8,406 more rows
…
#> 3384 0.1488 1.7503 0.04351 0.04362 0.0310 1.8565 1.3821 5.6e-05   1
#> 3385 0.1493 1.7534 0.04355 0.04362 0.0310 1.8612 1.3825 5.6e-05   1
#> 3386 0.1493 1.7534 0.04355 0.04362 0.0310 1.8612 1.3825 5.6e-05   1
#> 3387 0.1493 1.7534 0.04355 0.04362 0.0310 1.8612 1.3825 5.6e-05   1
#> 3388 0.1496 1.7551 0.04355 0.04362 0.0309 1.8600 1.3812 5.6e-05   1
#> 3389 0.1499 1.7624 0.04359 0.04362 0.0308 1.8671 1.3757 5.6e-05   1
#> 3390 0.1499 1.7584 0.04350 0.04362 0.0307 1.8650 1.3746 5.6e-05   1
#> 3391 0.1492 1.7497 0.04342 0.04362 0.0306 1.8556 1.3710 5.6e-05   1
#> 3392 0.1497 1.7533 0.04346 0.04362 0.0305 1.8531 1.3671 5.6e-05   1
#> 3393 0.1497 1.7533 0.04346 0.04362 0.0305 1.8531 1.3671 5.6e-05   1
#> 3394 0.1497 1.7533 0.04346 0.04362 0.0305 1.8531 1.3671 5.6e-05   1
#> 3395 0.1497 1.7533 0.04346 0.04362 0.0305 1.8531 1.3671 5.6e-05   1
#> 
pricing_cache("list.prices")
#> # A tibble: 5,933 × 23
#>       id slug    name    symbol timestamp           ref_cur_id ref_cur_name
#>    <int> <chr>   <chr>   <chr>  <dttm>              <chr>      <chr>       
#>  1     1 bitcoin Bitcoin BTC    2021-01-01 23:59:59 2781       USD         
#>  2     1 bitcoin Bitcoin BTC    2021-01-02 23:59:59 2781       USD         
#>  3     1 bitcoin Bitcoin BTC    2021-01-03 23:59:59 2781       USD         
#>  4     1 bitcoin Bitcoin BTC    2021-01-04 23:59:59 2781       USD         
#>  5     1 bitcoin Bitcoin BTC    2021-01-05 23:59:59 2781       USD         
#>  6     1 bitcoin Bitcoin BTC    2021-01-06 23:59:59 2781       USD         
#>  7     1 bitcoin Bitcoin BTC    2021-01-07 23:59:59 2781       USD         
#>  8     1 bitcoin Bitcoin BTC    2021-01-08 23:59:59 2781       USD         
#>  9     1 bitcoin Bitcoin BTC    2021-01-09 23:59:59 2781       USD         
#> 10     1 bitcoin Bitcoin BTC    2021-01-10 23:59:59 2781       USD         
#> # ℹ 5,923 more rows
#> # ℹ 16 more variables: time_open <dttm>, time_close <dttm>, time_high <dttm>,
#> #   time_low <dttm>, open <dbl>, high <dbl>, low <dbl>, close <dbl>,
#> #   volume <dbl>, market_cap <dbl>, circulating_supply <dbl>,
#> #   spot.rate_USD <dbl>, CAD.rate <dbl>, spot.rate2 <dbl>, currency <chr>,
#> #   date2 <date>
…
